<svg xmlns="http://www.w3.org/2000/svg" width="60" height="60" viewBox="0 0 60 60">
  <g id="Group_40" data-name="Group 40" transform="translate(-40 -180)">
    <circle id="Ellipse_5" data-name="Ellipse 5" cx="30" cy="30" r="30" transform="translate(40 180)" fill="#4ab790"/>
    <g id="Group_14" data-name="Group 14" transform="translate(57.259 194.629)">
      <path id="Path_11" data-name="Path 11" d="M-39.965,345.353c0,1.438.054,2.878-.02,4.312a7.861,7.861,0,0,1-.606,2.641,4.761,4.761,0,0,1-3.259,2.616,5.532,5.532,0,0,1-6.274-2.054,4.374,4.374,0,0,1-.923-2.673c-.024-3.306-.011-6.613-.009-9.919a5.049,5.049,0,0,1,2.8-4.328,5.925,5.925,0,0,1,4.432-.414,5.088,5.088,0,0,1,3.42,3.082,6.677,6.677,0,0,1,.416,2.282C-39.92,342.38-39.965,343.868-39.965,345.353Z" transform="translate(58.32 -335.291)" fill="#fff"/>
      <path id="Path_12" data-name="Path 12" d="M-56.437,346.466c2.217.007,3.056,0,3.056,0,.37,5.952,6.213,8.352,9.761,8.383,3.275-.031,8.831-1.452,9.72-8.354,0,0,1.422-.052,3.017,0-1.187,9.068-8.792,11.134-11,11.123l.02,5.141h-3.5l-.062-5.141C-51.974,357.252-56.656,350.25-56.437,346.466Z" transform="translate(56.444 -331.702)" fill="#fff"/>
    </g>
  </g>
</svg>
